{
  "gobelinQuest": {
    "accepteCadeau": "Merci pour ce cadeau, {{ giver }} ({{ item }} x {{ count }})",
    "happy": "Ce gobelin est content car il a reçu un cadeaux de la part de {{ giver }}.",
    "noThx": "Je ne veux pas de cet objet. Garde-le et va bien de faire voir ailleurs."
  }
}
