{
  "tag": "eqp-boots",
  "type": "item",
  "subtype": "equipment",
  "name": "Bottes",
  "desc": [
    "Les bottes se présentent sous de nombreuses formes selon leur fonction, mais elles n'augmentent pas la protection du personnage, à moins d'être magiques."
  ],
  "weight": 0,
  "stackable": false,
  "inventory": false
}
